ABC command line: "bm ../epfl_benchmark/pp/cavlc/cavlc1.v ../epfl_benchmark/pp/cavlc/cavlc2.v".

Network  strashing is done!
Total func supps   =      106.
Total struct supps =      106.
Sat runs SAT       =        0.
Sat runs UNSAT     =        0.
Simulation   =     0.00 sec
Traversal    =     0.00 sec
Fraiging     =     0.00 sec
SAT          =     0.00 sec
TOTAL        =     0.00 sec
Total func supps   =      106.
Total struct supps =      106.
Sat runs SAT       =        0.
Sat runs UNSAT     =        0.
Simulation   =     0.00 sec
Traversal    =     0.00 sec
Fraiging     =     0.00 sec
SAT          =     0.00 sec
TOTAL        =     0.00 sec
Getting dependencies is done!
Input Deps:
11 11 11 11 11 11 11 11 9 9 
Input Deps222222:
11 9 11 11 11 9 11 11 11 11 
Output Deps:
10 10 10 10 8 8 10 10 10 10 10 
Output Deps222222:
10 8 10 10 10 10 10 8 10 10 10 
