ABC command line: "bm ../epfl_benchmark/pp/i2c/i2c1.v ../epfl_benchmark/pp/i2c/i2c2.v".

Network  strashing is done!
Total func supps   =     1546.
Total struct supps =     1546.
Sat runs SAT       =        3.
Sat runs UNSAT     =        0.
Simulation   =     0.00 sec
Traversal    =     0.00 sec
Fraiging     =     0.01 sec
SAT          =     0.00 sec
TOTAL        =     0.02 sec
Total func supps   =     1546.
Total struct supps =     1546.
Sat runs SAT       =        6.
Sat runs UNSAT     =        0.
Simulation   =     0.00 sec
Traversal    =     0.00 sec
Fraiging     =     0.00 sec
SAT          =     0.00 sec
TOTAL        =     0.01 sec
Getting dependencies is done!
Input Deps:
3 2 17 41 21 20 20 21 20 21 20 21 21 20 20 17 20 20 20 20 17 20 21 2 17 6 13 13 6 6 3 3 3 3 3 3 3 3 17 7 17 17 17 17 17 17 17 17 17 17 17 9 8 13 22 1 1 2 13 6 3 2 3 3 3 3 3 3 3 3 3 3 3 3 3 3 3 3 2 2 2 3 27 1 2 12 2 2 3 3 3 3 3 3 3 11 11 10 3 3 12 1 1 1 1 1 11 1 1 11 14 3 2 2 2 2 14 1 2 1 3 1 21 5 1 2 2 17 1 117 1 40 41 41 1 1 48 48 48 5 5 5 5 5 5 5 5 
Input Deps222222:
3 41 13 40 13 3 17 17 17 1 17 20 117 3 21 21 3 14 3 3 5 3 20 12 20 2 1 5 8 1 2 17 3 3 3 17 2 17 3 3 3 2 3 3 6 14 12 3 2 21 48 3 3 1 17 5 27 20 1 5 1 5 3 3 17 22 2 1 1 17 17 3 3 2 10 11 11 21 21 48 11 2 17 20 20 3 48 1 1 1 5 21 1 3 3 6 1 3 5 1 20 5 7 20 1 17 17 3 17 3 2 13 13 2 2 17 3 2 3 21 3 3 20 3 6 3 2 2 6 5 9 1 41 3 1 3 17 11 2 20 1 41 2 2 3 3 20 
Output Deps:
1 1 1 1 1 1 1 1 1 1 1 1 0 1 1 22 21 21 23 20 24 24 20 20 20 20 20 20 24 20 21 20 24 20 20 21 20 20 4 21 17 14 15 17 14 6 6 6 6 6 6 6 6 21 6 21 21 21 21 21 21 21 21 21 21 21 4 5 13 20 4 10 10 11 14 4 4 9 9 9 9 9 9 9 9 9 9 9 9 9 9 9 9 9 9 9 9 9 10 9 13 9 9 9 9 9 9 9 9 10 12 12 12 9 9 12 10 9 9 9 10 12 10 10 8 6 10 10 6 2 10 7 2 7 3 5 3 2 2 2 4 3 
Output Deps222222:
3 9 3 9 6 4 20 10 9 4 12 9 4 6 1 9 10 6 24 1 9 12 1 21 20 20 10 6 9 14 20 20 12 9 9 9 20 9 9 20 17 21 10 5 9 17 2 24 9 2 9 10 9 20 1 9 21 10 5 1 23 24 9 13 1 21 22 9 6 1 10 9 1 10 7 14 4 9 3 9 1 0 9 7 12 20 10 11 6 1 20 21 9 9 1 9 12 21 6 21 21 10 9 21 14 20 20 6 21 21 21 24 9 6 9 13 4 9 21 8 1 1 2 9 21 21 9 9 6 21 2 9 21 6 1 2 20 20 10 4 9 15 
