ABC command line: "bm ../epfl_benchmark/np3/bar/bar1.v ../epfl_benchmark/np3/bar/bar2.v".

Warning: Constant-0 drivers added to 4 non-driven nets in network "top":
result[37], result[55], result[64], result[66] ...
Network  strashing is done!
Total func supps   =    17280.
Total struct supps =    17280.
Sat runs SAT       =        0.
Sat runs UNSAT     =        0.
Simulation   =     0.00 sec
Traversal    =     0.00 sec
Fraiging     =     0.00 sec
SAT          =     0.00 sec
TOTAL        =     0.01 sec
Total func supps   =    15996.
Total struct supps =    15996.
Sat runs SAT       =        0.
Sat runs UNSAT     =        0.
Simulation   =     0.00 sec
Traversal    =     0.00 sec
Fraiging     =     0.00 sec
SAT          =     0.00 sec
TOTAL        =     0.01 sec
Getting dependencies is done!
Input Deps:
128 128 128 128 128 128 128 128 128 128 128 128 128 128 128 128 128 128 128 128 128 128 128 128 128 128 128 128 128 128 128 128 128 128 128 128 128 128 128 128 128 128 128 128 128 128 128 128 128 128 128 128 128 128 128 128 128 128 128 128 128 128 128 128 128 128 128 128 128 128 128 128 128 128 128 128 128 128 128 128 128 128 128 128 128 128 128 128 128 128 128 128 128 128 128 128 128 128 128 128 128 128 128 128 128 128 128 128 128 128 128 128 128 128 128 128 128 128 128 128 128 128 128 128 128 128 128 128 128 128 128 128 128 128 128 
Input Deps222222:
124 124 124 124 124 124 124 124 124 124 124 124 124 124 124 124 124 124 124 124 124 124 124 124 124 124 0 124 124 124 124 124 124 124 124 124 124 124 124 124 124 124 0 124 124 124 124 124 124 124 124 124 124 124 124 124 124 124 124 124 124 124 124 124 124 124 124 124 124 124 124 124 124 124 124 124 124 124 124 124 124 124 124 124 124 124 0 124 124 124 124 124 124 124 124 124 124 124 0 124 124 124 124 124 124 124 124 124 124 124 124 124 124 124 124 124 124 124 124 0 124 124 124 124 124 124 124 124 124 124 0 124 124 124 124 
Output Deps:
135 135 135 135 135 135 135 135 135 135 135 135 135 135 135 135 135 135 135 135 135 135 135 135 135 135 135 135 135 135 135 135 135 135 135 135 135 135 135 135 135 135 135 135 135 135 135 135 135 135 135 135 135 135 135 135 135 135 135 135 135 135 135 135 135 135 135 135 135 135 135 135 135 135 135 135 135 135 135 135 135 135 135 135 135 135 135 135 135 135 135 135 135 135 135 135 135 135 135 135 135 135 135 135 135 135 135 135 135 135 135 135 135 135 135 135 135 135 135 135 135 135 135 135 135 135 135 135 
Output Deps222222:
129 129 129 129 129 129 129 129 129 129 129 129 129 129 129 129 129 129 129 129 129 129 129 129 129 129 129 129 129 129 129 129 129 129 129 129 129 0 129 129 129 129 129 129 129 129 129 129 129 129 129 129 129 129 129 0 129 129 129 129 129 129 129 129 0 129 0 129 129 129 129 129 129 129 129 129 129 129 129 129 129 129 129 129 129 129 129 129 129 129 129 129 129 129 129 129 129 129 129 129 129 129 129 129 129 129 129 129 129 129 129 129 129 129 129 129 129 129 129 129 129 129 129 129 129 129 129 129 
