ABC command line: "bm ../epfl_benchmark/npnp/arbiter/arbiter1.v ../epfl_benchmark/npnp/arbiter/arbiter2.v".

Network  strashing is done!
Total func supps   =    32896.
Total struct supps =    32896.
Sat runs SAT       =      128.
Sat runs UNSAT     =        0.
Simulation   =     4.69 sec
Traversal    =     1.15 sec
Fraiging     =     0.07 sec
SAT          =     0.01 sec
TOTAL        =    10.52 sec
Total func supps   =    32896.
Total struct supps =    32896.
Sat runs SAT       =      133.
Sat runs UNSAT     =        0.
Simulation   =     5.70 sec
Traversal    =     1.45 sec
Fraiging     =     0.27 sec
SAT          =     0.01 sec
TOTAL        =    13.15 sec
Getting dependencies is done!
Input Deps:
128 128 128 128 128 128 128 128 128 128 128 128 128 128 128 128 128 128 128 128 128 128 128 128 128 128 128 128 128 128 128 128 128 128 128 128 128 128 128 128 128 128 128 128 128 128 128 128 128 128 128 128 128 128 128 128 128 128 128 128 128 128 128 128 128 128 128 128 128 128 128 128 128 128 128 128 128 128 128 128 128 128 128 128 128 128 128 128 128 128 128 128 128 128 128 128 128 128 128 128 128 128 128 128 128 128 128 128 128 128 128 128 128 128 128 128 128 128 128 128 128 128 128 128 128 128 128 128 129 129 129 129 129 129 129 129 129 129 129 129 129 129 129 129 129 129 129 129 129 129 129 129 129 129 129 129 129 129 129 129 129 129 129 129 129 129 129 129 129 129 129 129 129 129 129 129 129 129 129 129 129 129 129 129 129 129 129 129 129 129 129 129 129 129 129 129 129 129 129 129 129 129 129 129 129 129 129 129 129 129 129 129 129 129 129 129 129 129 129 129 129 129 129 129 129 129 129 129 129 129 129 129 129 129 129 129 129 129 129 129 129 129 129 129 129 129 129 129 129 129 129 129 129 129 129 129 
Input Deps222222:
129 128 128 128 128 129 128 128 129 129 129 129 129 129 129 129 128 128 129 128 128 128 128 129 128 128 129 129 128 128 128 128 129 128 129 129 128 129 128 129 128 129 129 129 129 129 129 128 128 129 128 129 129 128 129 129 128 128 128 128 128 128 128 129 129 129 129 129 129 129 129 129 129 129 129 129 129 128 129 128 128 129 128 129 129 129 128 128 129 129 129 128 129 129 128 128 128 128 128 129 129 129 128 128 129 129 129 128 129 129 129 128 128 129 129 129 129 129 128 128 129 129 129 128 129 129 128 129 129 128 128 128 128 128 128 128 129 129 129 128 129 128 129 128 129 129 129 128 128 128 129 128 128 128 128 129 129 128 129 128 129 129 129 128 128 129 128 129 128 128 128 128 129 128 128 128 128 128 128 128 129 128 128 128 128 128 129 128 129 128 128 128 128 128 129 128 129 129 129 128 129 128 129 128 128 129 128 128 128 129 129 129 128 129 129 128 129 129 128 129 128 128 129 128 128 129 128 128 128 128 129 129 128 128 129 129 128 129 129 129 129 128 129 128 129 129 129 128 128 128 129 129 128 129 128 128 
Output Deps:
256 256 256 256 256 256 256 256 256 256 256 256 256 256 256 256 256 256 256 256 256 256 256 256 256 256 256 256 256 256 256 256 256 256 256 256 256 256 256 256 256 256 256 256 256 256 256 256 256 256 256 256 256 256 256 256 256 256 256 256 256 256 256 256 256 256 256 256 256 256 256 256 256 256 256 256 256 256 256 256 256 256 256 256 256 256 256 256 256 256 256 256 256 256 256 256 256 256 256 256 256 256 256 256 256 256 256 256 256 256 256 256 256 256 256 256 256 256 256 256 256 256 256 256 256 256 256 256 128 
Output Deps222222:
256 256 256 256 256 256 256 256 256 256 256 256 256 256 256 256 256 256 256 256 256 256 256 256 256 256 256 256 256 256 256 256 256 256 256 256 256 256 256 256 256 256 256 128 256 256 256 256 256 256 256 256 256 256 256 256 256 256 256 256 256 256 256 256 256 256 256 256 256 256 256 256 256 256 256 256 256 256 256 256 256 256 256 256 256 256 256 256 256 256 256 256 256 256 256 256 256 256 256 256 256 256 256 256 256 256 256 256 256 256 256 256 256 256 256 256 256 256 256 256 256 256 256 256 256 256 256 256 256 
